    1      4.42      6.76     46.15     24.99    994.60     83.25
    2      3.69    360.00     39.12     25.38    995.00     75.00
    3      2.76     10.21     40.55     25.96    994.80     75.25
    4      2.84     24.31     69.60     24.69    994.20     80.75
    5      3.66     10.88     79.17     23.69    995.00     93.50
    6      2.52    348.11     77.95     23.60    994.50     95.75
    7      3.33      6.38     75.30     23.45    995.70     94.00
    8      2.81     34.42     80.55     23.88    995.10     92.25
    9      2.93      6.28     69.23     24.03    994.20     93.25
   10      2.28     12.69     67.65     24.60    994.60     88.00
   11      1.59     16.49     72.03     24.13    994.20     91.75
   12      2.99     16.74     57.15     24.23    994.20     91.25
   13      4.11     12.21     62.00     23.90    993.40     94.25
   14      2.76     20.14     61.30     23.96    993.60     93.25
   15      2.77     52.34     73.25     23.48    995.00     94.50
   16      4.25     42.43     41.32     23.62    994.70     89.25
   17      3.89     29.93     53.85     24.24    994.90     80.49
   18      3.56     32.98     47.47     24.93    994.30     76.50
   19      5.04     38.64     40.27     25.02    994.90     72.75
   20      5.08     34.00     41.62     25.20    996.30     72.25
   21      4.80     31.00     37.60     25.87    995.30     70.75
   22      2.64     37.00     39.50     25.97    994.10     74.00
   23      2.89     33.41     48.72     26.03    993.20     74.25
   24      2.46      7.93     62.70     26.60    993.60     67.75
   25      4.02     33.02     50.72     26.57    994.90     67.75
   26      4.73     37.69     33.50     26.42    994.50     66.75
   27      4.93     27.03     48.47     26.63    994.00     63.50
   28      4.03     23.57     64.02     27.38    993.50     60.75
   29      3.73      8.02     77.45     27.68    993.30     65.50
   30      3.46      6.47     86.48     27.93    993.70     66.75
   31      4.68     19.60     78.92     27.67    993.90     67.00
   32      4.37     34.38     74.25     26.97    994.50     64.75
   33      5.14     43.03     46.07     26.99    994.80     72.00
   34      5.23     29.07     64.15     27.77    992.90     64.50
   35      5.91     21.75     62.48     27.99    993.20     59.50
   36      5.34     31.22     45.27     28.12    993.30     56.00
   37      4.52     33.09     48.22     27.51    993.50     63.50
   38      5.21     26.96     42.25     28.05    993.50     58.25
   39      5.80     28.20     45.35     27.51    994.20     55.25
   40      5.02     27.38     33.52     27.65    994.50     56.75
   41      5.43     37.29     34.80     26.73    995.60     60.00
   42      5.97     31.93     20.47     27.00    996.70     59.75
   43      6.06     27.12     16.02     27.31    996.10     56.50
   44      6.53     30.77     19.22     27.70    995.10     56.00
   45      5.60     28.72     24.05     28.23    994.30     56.25
   46      4.99     31.30     38.60     28.94    995.50     55.75
   47      5.54     23.74     64.57     27.41    995.60     64.25
   48      5.84     28.32     62.85     27.26    994.10     62.00
   49      2.48     40.43     80.22     24.88    993.50     78.50
   50      2.89     46.40     79.58     23.47    993.60     94.25
   51      2.98     45.95     77.30     23.19    995.00     96.25
   52      1.96     49.56     73.52     23.15    995.50     94.75
   53      2.15     40.28     54.18     23.13    995.10     96.00
   54      2.89     35.12     57.90     23.05    995.60     95.00
   55      4.39     32.17     38.12     23.75    996.10     93.00
   56      5.41     30.40     60.57     24.59    996.70     82.75
   57      4.55     39.92     62.22     25.55    996.10     71.75
   58      4.48     27.54     45.45     27.13    995.60     61.25
   59      4.85     26.46     57.97     27.30    995.50     60.25
   60      4.60     25.90     68.75     25.98    995.60     77.75
   61      4.15     38.64     57.82     27.13    994.60     66.75
   62      4.66     41.87     43.57     27.01    994.90     63.50
   63      5.35     30.84     27.30     27.31    994.40     59.75
   64      5.07     27.63     44.37     27.88    993.70     58.00
   65      5.05     40.98     80.68     28.16    992.60     56.25
   66      4.51     32.42     75.30     26.06    994.30     67.75
   67      3.34     14.20     64.02     25.93    995.50     79.24
   68      4.17     34.45     57.47     26.09    994.30     66.00
   69      2.97     27.26     59.42     25.57    994.40     79.24
   70      1.88     20.84     59.45     25.13    993.30     77.25
   71      2.49     30.69     56.10     25.54    993.90     79.00
   72      3.81     41.27     36.95     26.35    994.50     76.49
   73      4.33     36.74     37.77     27.44    993.20     65.25
   74      3.62     51.74     72.07     25.33    993.80     73.25
   75      4.53     20.56     77.47     24.86    993.60     87.50
   76      4.37     31.14     72.10     25.43    994.10     86.75
   77      4.60     14.34     74.65     24.75    993.60     84.25
   78      3.84     15.27     67.45     25.59    993.60     79.99
   79      3.04     23.45     80.62     25.37    994.80     82.50
   80      3.86     42.16     72.27     26.11    995.80     77.00
   81      3.28     40.68     58.32     26.31    995.40     77.25
   82      5.20     35.06     46.10     26.82    994.40     66.25
   83      3.76     36.57     50.50     27.11    994.70     66.25
   84      3.26     35.39     45.72     27.08    994.90     70.50
   85      3.60     26.57     69.15     26.13    994.80     67.75
   86      4.38     27.33     59.77     25.02    995.30     88.50
   87      3.91      6.45     52.07     26.89    994.70     77.75
   88      1.97     10.80     66.22     25.01    993.50     84.75
   89      2.16    352.81     68.80     24.59    993.70     94.50
   90      2.56      6.51     65.72     24.59    994.20     94.25
   91      2.46     45.00     69.25     24.73    994.10     93.50
   92      2.60    354.49     70.52     24.62    993.90     95.00
   93      2.58    355.11     68.87     24.80    994.70     94.50
   94      4.07     26.06     68.17     24.74    995.30     90.75
   95      4.38     20.30     64.92     25.75    994.70     87.50
   96      4.66     30.42     71.80     26.11    995.20     77.75
   97      4.35     33.76     73.22     26.23    994.70     75.25
   98      5.25     37.02     59.72     27.04    994.90     65.25
   99      5.42     30.02     74.22     26.96    995.20     66.25
  100      4.80     34.39     72.15     26.36    994.80     67.75
  101      4.65     25.74     76.15     25.23    994.60     84.50
  102      5.63     32.31     60.25     26.25    994.80     76.74
  103      5.70     30.84     57.52     26.73    995.20     66.25
  104      5.48     25.72     60.77     27.15    995.80     61.50
  105      4.97     19.89     70.32     26.34    994.70     72.50
  106      4.54     25.27     74.40     26.78    993.00     73.50
  107      2.58     35.23     81.32     26.25    992.60     70.75
  108      1.91     43.30     79.83     24.56    993.50     90.00
  109      1.73      9.63     68.45     24.02    995.60     93.00
  110      1.29     19.00     69.90     24.24    995.60     90.25
  111      2.21     35.78     63.42     25.12    994.50     83.25
  112      1.70     36.40     68.72     24.61    993.50     86.25
  113      1.53    349.86     65.45     24.81    993.70     90.25
  114      2.48     31.83     61.65     25.88    994.20     78.99
  115      3.94     42.12     72.02     27.67    993.50     74.75
  116      3.48     25.68     63.17     25.43    992.10     81.50
  117      2.71     40.51     73.52     24.75    992.20     93.50
  118      2.24     13.97     74.17     24.82    993.90     95.75
  119      2.10    353.18     66.12     24.58    992.70     96.50
  120      2.05    269.44     71.52     24.50    993.50     97.75
  121      2.09    251.91     65.85     24.44    993.40     96.75
  122      0.82    358.60     63.05     24.69    993.80     96.75
  123      2.35     21.21     60.45     24.78    994.20     95.25
  124      3.91     14.21     48.80     25.88    993.70     88.75
  125      3.38     37.18     65.85     25.32    993.00     87.75
  126      3.85     12.16     76.95     24.46    993.90     94.50
  127      3.79     17.05     77.32     24.58    993.80     95.75
  128      3.47     18.33     49.50     25.46    994.00     89.00
  129      4.23     19.21     62.75     25.93    993.20     85.25
  130      4.14      0.55     54.75     27.12    993.30     79.25
  131      4.20     10.16     60.72     27.62    994.10     74.25
  132      2.22     12.72     65.22     25.47    994.00     84.00
  133      2.58      6.00     65.35     25.18    994.00     90.25
  134      5.07      8.96     76.33     24.83    994.20     94.00
  135      5.16      5.22     68.95     25.39    994.60     89.00
  136      4.48      6.02     62.02     25.14    994.30     92.25
  137      4.35     15.60     68.27     24.73    993.90     93.50
  138      4.05      2.98     76.47     25.07    993.30     95.50
  139      3.04    360.00     68.95     25.06    994.60     95.25
  140      2.43     39.99     54.40     24.96    995.00     93.75
  141      2.41     17.91     71.10     25.17    994.70     93.75
  142      1.05    283.77     71.32     25.10    993.90     97.75
  143      2.00    270.57     79.20     25.43    994.90     94.75
  144      2.53    283.05     78.40     25.48    996.30     92.00
  145      2.14    268.13     77.20     25.12    996.40     94.00
  146      0.75     40.68     78.80     24.82    996.30     93.50
  147      0.62    355.39     71.62     24.77    995.60     94.50
  148      1.59     28.98     67.22     25.01    996.50     94.00
  149      1.71      3.01     74.37     25.40    996.30     95.00
  150      1.87    328.09     68.52     25.58    995.50     95.00
  151      1.67    323.27     71.47     25.74    995.00     92.50
  152      1.29    309.63     72.87     25.32    995.90     92.25
  153      1.26     19.01     69.35     25.33    996.30     89.25
  154      1.02      7.89     61.62     25.38    997.30     92.50
  155      0.96     55.65     51.70     25.13    998.00     90.00
  156      1.70     20.99     50.95     25.02    997.20     92.00
  157      1.99    359.42     63.02     24.74    996.40     94.25
  158      2.78    356.08     67.23     24.88    996.60     93.00
  159      1.93    348.63     67.85     25.11    995.90     93.00
  160      2.69      6.20     57.15     26.00    995.70     88.25
  161      2.65     53.91     52.07     26.12    995.00     86.50
  162      1.67     14.53     75.35     25.10    995.80     92.25
  163      1.14     11.11     74.67     25.16    996.60     98.00
  164      2.17    350.97     65.95     24.98    996.10     95.50
  165      3.27      7.39     64.47     24.77    996.50     93.00
  166      2.08    342.70     81.53     25.27    996.80     95.75
  167      2.40    349.67     70.05     25.53    996.80     90.75
  168      3.31      0.35     54.12     25.88    996.80     87.75
  169      3.51      2.28     54.75     26.16    996.10     86.75
  170      3.06    347.37     65.15     25.53    996.20     87.25
  171      3.07    358.69     66.28     25.06    996.90     92.25
  172      4.62      3.35     74.97     24.96    997.20     92.50
  173      2.82    351.84     73.07     24.74    995.60     95.50
  174      2.92      5.30     70.97     24.72    995.00     96.00
  175      4.32    358.28     67.45     25.00    995.20     92.50
  176      4.45    356.13     65.60     25.14    995.40     92.75
  177      4.19      0.14     70.45     25.03    995.10     93.25
  178      3.24      3.00     77.47     24.89    994.70     97.25
  179      2.18    337.08     74.07     25.24    994.70     95.50
  180      1.75    339.90     70.05     24.98    996.00     95.50
  181      3.51    359.67     65.10     25.09    995.90     92.00
  182      3.81      5.58     72.68     24.67    994.70     96.00
  183      3.48    355.88     68.15     25.12    995.10     92.75
  184      3.26    353.83     59.62     25.33    995.60     93.25
  185      3.32     13.41     52.12     25.33    995.30     91.25
  186      3.31    353.93     56.35     25.06    995.50     94.25
  187      3.08    356.27     75.05     25.00    996.40     95.00
  188      3.74      0.61     57.22     25.05    995.50     93.00
  189      2.79    357.13     69.32     24.96    995.00     94.50
  190      3.38    355.08     71.37     24.90    995.90     95.50
  191      3.17    358.37     75.95     24.47    996.70     95.75
  192      3.66      1.10     72.37     24.78    996.40     92.75
  193      3.07     14.53     73.97     24.54    994.30     96.00
  194      1.81    342.27     80.65     24.98    994.20     96.25
  195      2.36    312.26     77.28     24.98    994.60     95.00
  196      2.12     10.04     80.07     24.74    996.10     95.00
  197      3.15     13.02     62.67     24.57    994.70     94.50
  198      3.04    359.43     66.10     24.95    995.50     94.25
  199      3.44    359.67     62.20     25.26    995.80     92.75
  200      5.59      7.61     45.42     25.60    995.70     84.25
  201      4.82     22.04     66.22     25.22    995.60     85.25
  202      2.49      0.46     71.95     24.92    994.90     95.00
  203      2.68    341.50     66.87     25.38    994.80     93.75
  204      2.22    341.65     70.85     24.64    995.50     95.75
  205      3.06      1.31     59.05     24.68    997.50     92.75
  206      3.53     21.41     68.72     24.21    997.80     93.50
  207      3.53     15.97     77.27     24.13    996.50     96.75
  208      2.79     17.53     66.82     24.39    996.00     96.00
  209      3.58     18.89     70.77     24.37    996.10     95.25
  210      3.04    340.97     74.50     24.69    996.70     94.50
  211      2.71     15.42     67.55     24.41    995.40     94.75
  212      2.51     13.59     72.35     24.58    996.20     92.25
  213      2.73      3.58     73.27     25.03    995.50     93.00
  214      2.57    314.84     73.57     25.04    995.80     90.00
  215      3.35    343.73     69.95     24.46    995.80     93.25
  216      4.17      8.83     61.02     25.10    995.60     89.50
  217      3.99      9.23     65.57     24.79    994.90     88.75
  218      1.65    341.67     73.40     24.45    995.50     94.75
  219      0.18    319.40     68.90     24.48    996.00     94.75
  220      2.72     34.51     55.32     24.21    996.10     93.50
  221      3.73     22.86     61.90     24.16    995.50     96.00
  222      2.96    357.29     74.52     24.56    995.40     94.75
  223      2.17    354.18     75.45     24.91    996.00     95.50
  224      2.57      0.45     61.37     25.18    995.50     90.25
  225      2.61    358.90     64.00     25.24    995.50     91.75
  226      3.31    358.79     52.40     25.65    995.20     90.25
  227      3.73    355.39     57.95     25.13    995.10     90.50
  228      4.11    354.55     51.35     25.65    995.20     87.25
  229      2.68    350.33     69.92     25.13    995.10     93.50
  230      3.14    342.37     67.70     25.82    994.60     87.50
  231      3.28    347.66     56.07     26.25    994.60     86.00
  232      2.13    299.21     72.85     25.52    994.40     94.75
  233      2.26    280.46     70.60     25.33    994.00     93.25
  234      1.24    314.35     77.95     25.05    994.30     94.25
  235      1.98    353.63     80.75     24.84    995.50     96.25
  236      2.45     12.73     78.75     24.56    996.60     94.50
  237      2.32      9.67     76.60     24.73    995.50     95.25
  238      2.53    353.18     84.52     24.68    994.80     95.00
  239      2.40    345.04     77.65     24.79    994.40     96.00
  240      2.77    346.01     66.90     25.43    995.20     91.00
  241      2.86    349.95     73.65     25.35    995.30     92.50
  242      2.02    359.43     71.42     24.86    994.30     96.00
  243      1.67    270.00     75.50     24.96    994.30     95.50
  244      1.73    298.35     76.93     25.23    995.80     93.25
  245      1.75    355.07     65.60     24.92    996.10     95.50
  246      1.75     26.86     75.07     24.49    996.20     96.75
  247      0.88    325.22     74.25     24.62    996.00     96.75
  248      0.64    327.05     74.50     24.95    996.20     94.00
  249      0.56    333.43     71.92     25.11    996.10     94.75
  250      1.69    351.49     72.32     24.95    995.50     94.75
  251      2.19    357.39     79.15     24.38    994.00     95.75
  252      1.86     16.20     75.85     24.77    994.70     94.50
  253      2.32     20.70     76.53     24.96    995.80     93.00
  254      2.95      4.67     74.38     24.82    996.20     95.50
  255      2.73    347.95     65.70     24.95    996.30     93.75
  256      1.79      8.67     73.10     24.68    996.60     94.50
  257      1.41     10.20     71.37     24.38    996.90     96.00
  258      2.03     26.94     70.90     24.59    996.10     95.75
  259      2.69      8.97     69.92     24.41    994.40     94.25
  260      1.51     19.76     70.52     24.54    994.00     96.50
  261      1.62    268.23     67.10     24.73    994.30     95.00
  262      1.04    282.17     66.60     25.52    993.90     93.75
  263      1.04    236.77     69.27     25.12    994.00     91.75
  264      0.81    233.56     63.35     24.83    994.90     94.25
  265      1.09    307.18     63.90     25.06    995.30     94.00
  266      0.66    236.07     66.30     24.88    994.70     90.75
  267      0.94    329.88     62.00     24.58    994.00     90.25
  268      0.93    349.42     76.32     24.87    993.80     90.50
  269      0.68    322.12     68.57     25.07    995.00     94.75
  270      0.71    347.73     68.70     24.86    994.70     96.25
  271      0.86    355.35     75.45     24.21    994.90     96.50
  272      1.63    275.99     80.35     23.86    995.30     95.25
  273      1.75     17.30     77.35     24.48    995.60     93.75
  274      0.46     53.88     75.30     24.06    993.80     90.75
  275      1.94    360.00     82.10     24.57    994.00     97.25
  276      2.36    323.08     82.52     24.87    994.30     95.00
  277      1.01    313.00     81.68     25.07    996.30     94.25
  278      0.58    339.68     75.53     24.60    996.10     96.25
  279      1.25    326.06     68.52     24.57    994.80     95.75
  280      2.09      1.92     63.10     24.42    994.00     96.00
  281      1.74      8.27     75.72     24.30    995.20     95.75
  282      1.91      7.24     72.55     24.65    995.70     94.25
  283      1.48     17.70     73.32     24.52    995.50     94.75
  284      1.29    357.78     80.97     24.22    995.00     96.25
  285      2.11      0.54     77.97     24.07    995.50     93.50
  286      2.30     26.34     72.97     23.65    996.70     95.00
  287      2.06     15.18     67.70     23.59    995.20     95.75
  288      0.81     35.46     72.85     23.52    994.90     95.25
  289      1.24     59.91     74.52     23.73    994.20     95.50
  290      0.62    249.23     71.97     24.15    994.40     96.75
  291      1.29    225.63     71.10     24.20    995.90     95.50
  292      1.33    252.52     66.07     24.45    996.20     95.00
  293      0.69    205.82     76.72     24.22    996.60     94.00
  294      1.27    138.52     67.57     24.04    996.20     95.75
  295      1.01    144.26     67.12     24.31    995.30     95.00
  296      0.68     49.76     67.37     24.05    994.80     95.25
  297      2.28     35.16     78.10     24.34    993.90     96.75
  298      1.59    345.44     84.35     24.26    994.00     97.25
  299      1.31    284.14     80.33     24.71    994.40     96.25
  300      0.74    320.49     76.95     24.82    994.60     95.25
  301      0.49    229.14     61.55     24.28    994.90     97.25
  302      0.75    240.35     63.92     24.33    995.20     95.75
  303      1.06    305.04     57.80     24.36    994.30     96.50
  304      1.92      5.68     61.87     24.46    994.70     96.50
  305      2.94    346.25     71.60     24.38    994.20     95.75
  306      1.64    297.97     75.82     24.55    994.00     96.75
  307      1.05    330.25     68.27     24.60    993.90     93.75
  308      1.57    328.54     76.35     24.82    993.80     94.50
  309      1.70    349.15     73.83     24.72    993.50     95.75
  310      1.45    327.08     70.60     24.51    993.20     96.25
  311      1.51      9.52     76.97     24.58    993.90     96.25
  312      1.71     23.11     73.40     24.51    992.30     96.50
  313      0.78    347.39     79.00     24.30    991.90     96.50
  314      2.32    304.31     74.57     24.48    991.50     96.50
  315      1.27    337.28     72.97     24.53    993.10     94.50
  316      1.12    359.49     74.77     24.61    993.60     94.00
  317      3.05    354.92     75.75     24.25    992.50     96.50
  318      2.51    346.41     83.10     24.28    993.10     95.50
  319      2.86      7.42     77.97     24.29    994.10     96.25
  320      2.39     26.56     80.15     24.05    995.10     94.75
  321      1.84     13.81     78.67     24.31    995.50     95.00
  322      2.68     23.31     66.45     24.06    994.60     94.00
  323      2.13     22.60     67.97     23.95    993.90     95.75
  324      3.27     23.20     62.20     24.67    994.40     90.50
  325      3.86     22.71     68.65     24.20    993.70     93.25
  326      2.15     31.33     74.82     23.98    993.80     94.75
  327      0.79     21.40     76.70     24.01    993.70     95.25
  328      0.71    283.84     74.22     24.47    993.30     94.75
  329      1.43    281.70     75.20     24.35    993.50     95.75
  330      0.63    352.65     67.25     24.64    994.20     97.00
  331      2.38    346.14     73.97     24.60    993.90     96.00
  332      3.68    351.87     73.52     24.66    994.40     93.75
  333      3.65    356.07     73.90     24.39    994.50     95.25
  334      3.23      3.91     76.15     24.48    993.20     94.00
  335      2.98      4.24     80.12     24.48    992.70     95.00
  336      2.87    358.40     79.05     24.22    994.10     95.00
  337      3.93     13.82     73.10     24.07    994.30     94.00
  338      4.17      2.89     70.22     24.13    994.10     94.50
  339      2.55    349.39     78.97     24.47    994.10     95.50
  340      3.04    347.65     75.95     24.49    992.70     94.50
  341      2.58    349.52     80.78     24.32    993.50     95.75
  342      3.49      3.13     78.37     24.12    993.90     93.25
  343      2.46      3.97     80.97     24.03    994.30     96.00
  344      2.68    354.65     80.47     24.03    993.80     96.25
  345      2.61    357.81     83.70     23.65    993.50     96.50
  346      2.19    348.12     83.30     23.99    993.40     97.00
  347      2.49    342.00     82.63     24.05    993.40     97.00
  348      3.57     10.33     78.57     24.06    994.20     94.75
  349      3.80     14.00     64.00     24.39    994.30     91.00
  350      3.50     14.71     71.95     23.88    994.50     92.00
  351      4.17     19.04     56.05     23.73    995.40     90.25
  352      4.27     17.88     52.77     23.92    996.30     84.50
  353      2.38     36.63     70.27     23.01    994.70     88.25
  354      3.17     16.49     61.17     23.32    994.40     90.25
  355      2.94     20.28     48.75     23.56    993.90     88.75
  356      3.23     38.08     60.30     23.72    995.60     90.25
  357      4.50     29.59     49.85     24.48    995.70     86.75
  358      4.00     20.79     54.90     24.05    994.80     86.50
  359      4.11     26.94     50.55     24.36    993.90     83.50
  360      4.36     22.80     55.02     24.52    994.90     81.24
  361      3.54     20.48     52.92     24.33    995.70     79.50
  362      3.57     31.02     41.30     25.49    995.70     80.49
  363      3.15     28.28     51.32     24.48    994.10     87.75
  364      4.90     30.54     67.45     25.17    994.30     86.00
  365      5.17     22.05     61.30     24.63    994.60     82.50
  366      4.24     33.47     61.80     25.25    994.90     82.50
